Version 4
SHEET 1 880 680
WIRE 16 -192 16 -224
WIRE 16 -80 16 -112
WIRE 464 32 400 32
WIRE 400 64 400 32
WIRE 464 112 464 32
WIRE 144 128 80 128
WIRE 256 128 224 128
WIRE 432 128 256 128
WIRE 576 144 496 144
WIRE 640 144 576 144
WIRE 80 160 80 128
WIRE 432 160 384 160
WIRE 256 208 256 128
WIRE 464 208 464 176
WIRE 464 208 448 208
WIRE 384 224 384 160
WIRE 496 224 384 224
WIRE 576 224 576 144
WIRE 384 256 384 224
WIRE 80 320 80 240
WIRE 256 320 256 272
WIRE 640 352 640 144
WIRE 384 368 384 336
FLAG 80 320 0
FLAG 256 320 0
FLAG 384 368 0
FLAG 640 352 0
FLAG 400 64 0
FLAG 16 -80 0
FLAG 16 -224 5V
IOPIN 16 -224 Out
FLAG 448 208 12
IOPIN 448 208 In
SYMBOL voltage 80 144 R0
WINDOW 3 24 152 Left 2
WINDOW 123 24 124 Left 2
WINDOW 39 0 0 Left 2
SYMATTR InstName V1
SYMATTR Value SINE(0 3 1000)
SYMATTR Value2 AC 1
SYMBOL res 240 112 R90
WINDOW 0 0 56 VBottom 2
WINDOW 3 32 56 VTop 2
SYMATTR InstName R1
SYMATTR Value 10k
SYMBOL res 400 352 R180
WINDOW 0 36 76 Left 2
WINDOW 3 36 40 Left 2
SYMATTR InstName R2
SYMATTR Value 1k
SYMBOL res 480 240 R270
WINDOW 0 32 56 VTop 2
WINDOW 3 0 56 VBottom 2
SYMATTR InstName R3
SYMATTR Value 9k
SYMBOL cap 240 208 R0
SYMATTR InstName C1
SYMATTR Value 100n
SYMBOL Opamps\\UniversalOpamp2 464 144 M180
SYMATTR InstName U1
SYMBOL voltage 16 -208 R0
WINDOW 123 0 0 Left 2
WINDOW 39 0 0 Left 2
SYMATTR InstName V2
SYMATTR Value 5
TEXT 80 384 Left 2 !;ac dec 20 1 100000
TEXT 96 24 Left 2 !.tran 0 0.5 0 .01
