Version 4
SHEET 1 880 680
WIRE 192 -96 80 -96
WIRE 368 -96 256 -96
WIRE 464 -96 368 -96
WIRE 608 -96 544 -96
WIRE 368 -32 368 -96
WIRE 80 -16 80 -96
WIRE 608 -16 608 -96
WIRE 80 112 80 64
WIRE 304 112 80 112
WIRE 368 112 368 48
WIRE 368 112 304 112
WIRE 608 112 608 48
WIRE 608 112 368 112
WIRE 304 160 304 112
FLAG 304 160 0
SYMBOL cap 592 -16 R0
SYMATTR InstName C1
SYMATTR Value 2.7n
SYMBOL res 560 -112 R90
WINDOW 0 0 56 VBottom 2
WINDOW 3 32 56 VTop 2
SYMATTR InstName R1
SYMATTR Value 10k
SYMBOL voltage 80 -32 R0
WINDOW 123 24 124 Left 2
WINDOW 39 0 0 Left 2
WINDOW 3 24 152 Left 2
SYMATTR Value2 AC 1
SYMATTR Value SINE(250mV 250mV 7500)
SYMATTR InstName V1
SYMBOL cap 256 -112 R90
WINDOW 0 0 32 VBottom 2
WINDOW 3 32 32 VTop 2
SYMATTR InstName C2
SYMATTR Value 3.6n
SYMBOL res 384 64 R180
WINDOW 0 36 76 Left 2
WINDOW 3 36 40 Left 2
SYMATTR InstName R2
SYMATTR Value 10k
TEXT 96 248 Left 2 !;ac dec 20 1 100000
TEXT 104 -160 Left 2 !.tran 0 1 0
